{
  "Dry": {
    "en": {
      "vacuum_pressure_prefix": {
        "vacuum_pressure": {
          "any": "at pressure",
          "else": "at default pressure"
        }
      },
      "temp_prefix": {
        "temp": {
          "any": "at temperature",
          "else": "without temperature control"
        }
      },
      "continue_heatchill": {
        "continue_heatchill": {
          "true": "continuing heating after step has finished",
          "false": "stopping heating when step finishes"
        }
      },
      "full": "Dry contents of {vessel} for {time} {vacuum_pressure_prefix} {vacuum_pressure} {temp_prefix} {temp} {continue_heatchill}"
    },
    "zh": "\u5e72\u71e5{vessel}\u4e2d\u7684\u7ec4\u5206\uff0c\u65f6\u95f4\u4e3a{time}",
    "ru": "\u0412\u044b\u0441\u0443\u0448\u0438\u0442\u044c \u0441\u043e\u0434\u0435\u0440\u0436\u0438\u043c\u043e\u0435 {vessel} \u0432 \u0442\u0435\u0447\u0435\u043d\u0438\u0435 {time}."
  }
}
